{
  "window.zoomLevel": 0,
  "editor.formatOnSave": true,
  "npm.enableScriptExplorer": true,
  "terminal.integrated.fontSize": 12,
  "markdown.preview.fontSize": 13,
  "git.enableSmartCommit": true,
  "diffEditor.ignoreTrimWhitespace": false,
  "git.confirmSync": false,
  "explorer.confirmDelete": false,
  "window.menuBarVisibility": "toggle",
  "editor.wordWrap": "on",
  "editor.multiCursorModifier": "ctrlCmd",
  "editor.fontFamily": "Fira Code iScript, Fira Code, monospace",
  "editor.fontLigatures": true,
  "editor.lineHeight": 24,
  "editor.letterSpacing": 0.4,
  "editor.fontWeight": "400",
  "editor.formatOnPaste": true,
  "editor.cursorStyle": "line",
  "editor.cursorWidth": 5,
  "editor.cursorBlinking": "solid",
  "editor.renderWhitespace": "all",
  "editor.snippetSuggestions": "top",
  "editor.quickSuggestions": {
    "other": true,
    "comments": false,
    "strings": true
  },
  "editor.fontSize": 13,
  "editor.tabSize": 2,
  "editor.minimap.enabled": false,
  "editor.renderControlCharacters": false,
  "workbench.editor.enablePreview": false,
  "breadcrumbs.enabled": false,
  "[html]": {
    "editor.defaultFormatter": "esbenp.prettier-vscode"
  },
  "[css]": {
    "editor.defaultFormatter": "esbenp.prettier-vscode"
  },
  "[javascript]": {
    "editor.defaultFormatter": "esbenp.prettier-vscode"
  },
  "emmet.includeLanguages": {
    "html": "html",
    "javascript": "javascriptreact"
  },
  "workbench.colorTheme": "Dracula",
  "[jsonc]": {
    "editor.defaultFormatter": "esbenp.prettier-vscode"
  },
  "editor.occurrencesHighlight": false,
  "git.autofetch": true,
  "[json]": {
    "editor.defaultFormatter": "esbenp.prettier-vscode"
  },
  "javascript.validate.enable": false,
  "workbench.iconTheme": "simple-icons",
  "terminal.integrated.rendererType": "dom",
  "workbench.startupEditor": "none", // Disable css built-in lint
  "stylelint.enable": true,
  "explorer.confirmDragAndDrop": false,
  "[todo]": {},
  "[typescript]": {
    "editor.defaultFormatter": "esbenp.prettier-vscode"
  },
  "html-css-class-completion.includeGlobPattern": "**/*.{css,html}",
  "debug.console.fontSize": 13,
  "todo-tree.highlights.enabled": true,
  "css.validate": false,
  "less.validate": false,
  "scss.validate": false,
  "projectManager.sortList": "Recent",
  "prettier.semi": false,
  "todo-tree.tree.showScanModeButton": false,
  "files.exclude": {
    "**/node_modules": true
  }
}
